<?xml version="1.0" encoding="iso-8859-1"?>
<!-- Uploaded to: SVG Repo, www.svgrepo.com, Generator: SVG Repo Mixer Tools -->
<svg fill="#dddddd" height="800px" width="800px" version="1.1" id="Layer_1" xmlns="http://www.w3.org/2000/svg" xmlns:xlink="http://www.w3.org/1999/xlink" 
	 viewBox="0 0 512 512" xml:space="preserve">
<g>
	<g>
		<g>
			<path d="M490.667,149.333h-21.333V128c0-11.776-9.536-21.333-21.333-21.333c-11.776,0-21.333,9.557-21.333,21.333v21.333h-21.333
				V128c0-35.285-28.693-64-64-64H170.667c-35.285,0-64,28.715-64,64v21.333H85.333V128c0-11.776-9.536-21.333-21.333-21.333
				c-11.776,0-21.333,9.557-21.333,21.333v21.333H21.333C9.557,149.333,0,158.891,0,170.667S9.557,192,21.333,192h21.333v21.333
				c0,11.776,9.557,21.333,21.333,21.333c11.797,0,21.333-9.557,21.333-21.333V192h21.333v128h192H320h64
				c11.797,0,21.333-9.557,21.333-21.333V192h21.333v21.333c0,11.776,9.557,21.333,21.333,21.333
				c11.797,0,21.333-9.557,21.333-21.333V192h21.333c11.797,0,21.333-9.557,21.333-21.333S502.464,149.333,490.667,149.333z
				 M362.667,149.333H320V128c0-11.755,9.579-21.333,21.333-21.333c11.776,0,21.333,9.579,21.333,21.333V149.333z"/>
			<path d="M106.675,405.333c0,23.531,19.136,42.667,42.667,42.667h128c23.531,0,42.667-19.136,42.667-42.667v-42.667H106.675
				V405.333z"/>
		</g>
	</g>
</g>
</svg>