<svg width="960" height="1080" viewBox="0 0 960 1080" fill="none" xmlns="http://www.w3.org/2000/svg">
<rect width="960" height="1080" fill="#E3F4FF"/>
<path d="M689.95 767.556H267.196V346.431H689.95V767.556Z" fill="#A8DFFF"/>
<path d="M141.701 862.5H818.301C820.361 862.5 822.034 860.828 822.034 858.765C822.034 856.701 820.361 855.029 818.301 855.029H141.701C139.638 855.029 137.966 856.701 137.966 858.765C137.966 860.828 139.638 862.5 141.701 862.5Z" fill="#2D5B98"/>
<path d="M324.022 825.428C303.143 825.428 286.216 808.501 286.216 787.62V736.08H361.829V787.62C361.829 808.501 344.903 825.428 324.022 825.428Z" fill="#5896FA"/>
<path d="M286.216 855.029H282.025V775.03H286.216V855.029Z" fill="#0E0E0E"/>
<path d="M366.02 855.029H361.829V775.03H366.02V855.029Z" fill="#0E0E0E"/>
<path d="M333.953 855.029H329.763V775.03H333.953V855.029Z" fill="#0E0E0E"/>
<path d="M282.025 829.618V825.428H362.024V829.618H282.025Z" fill="#0E0E0E"/>
<path d="M382.903 650.929C387.467 657.503 378.282 663.168 376.852 672.278C375.421 681.385 385.856 686.513 374.789 698.44C367.973 705.786 362.22 696.029 356.679 707.288C351.139 718.546 355.505 720.445 349.277 724.495C338.421 731.557 321.811 715.949 327.397 704.703C332.983 693.456 344.283 694.463 339.055 685.209C333.827 675.956 331.883 671.97 340.898 667.215C352.055 661.331 361.888 666.736 362.785 658.126C363.683 649.516 376.867 642.237 382.903 650.929Z" fill="#FFCA59"/>
<path d="M335.207 735.564L333.329 735.192C342.126 690.728 371.291 659.591 371.584 659.283L372.973 660.601C372.683 660.906 343.894 691.661 335.207 735.564Z" fill="#0E0E0E"/>
<path d="M236.677 634.504C231.96 644.117 245.253 649.767 248.978 661.535C252.702 673.301 238.988 677.457 256.032 691.017C266.529 699.371 268.726 694.149 272.585 712.83C275.983 729.277 288.48 713.627 297.826 723.28C309.884 735.735 328.727 708.399 319.073 694.64C309.42 680.882 298.154 684.437 303.211 671.143C308.269 657.845 302.237 647.829 289.351 643.348C273.402 637.806 267.666 651.192 264.747 639.979C261.827 628.766 242.916 621.786 236.677 634.504Z" fill="#ED5A24"/>
<path d="M316.815 736.907C296.48 680.528 252.208 645.65 251.764 645.305L253.336 643.278C253.787 643.629 298.642 678.965 319.225 736.038L316.815 736.907Z" fill="#0E0E0E"/>
<path d="M533.919 419.13C533.919 508.432 461.526 580.825 372.223 580.825C282.92 580.825 210.526 508.432 210.526 419.13C210.526 329.826 282.92 257.432 372.223 257.432C461.526 257.432 533.919 329.826 533.919 419.13Z" stroke="#2E77E6" stroke-width="11.6408" stroke-miterlimit="10" stroke-dasharray="17.46 17.46"/>
<path d="M413.163 408.515C413.334 407.255 413.453 405.976 413.453 404.667C413.453 388.928 400.693 376.17 384.955 376.17C373.147 376.17 363.017 383.348 358.694 393.582C355.175 390.447 350.552 388.531 345.47 388.531C334.472 388.531 325.556 397.446 325.556 408.442H321.84C311.265 408.442 302.612 417.094 302.612 427.67C302.612 438.245 311.265 446.897 321.84 446.897H411.744C422.319 446.897 430.972 438.245 430.972 427.67C430.972 417.574 423.079 409.251 413.163 408.515Z" fill="white"/>
<path d="M430.846 617.675H310.477C306.427 617.675 303.143 614.391 303.143 610.341V509.357C303.143 505.307 306.427 502.023 310.477 502.023H430.846C434.896 502.023 438.18 505.307 438.18 509.357V610.341C438.18 614.391 434.896 617.675 430.846 617.675Z" fill="#5896FA"/>
<path d="M411.546 571.855H330.138C327.474 571.855 325.295 569.673 325.295 567.012C325.295 564.347 327.474 562.168 330.138 562.168H411.546C414.207 562.168 416.389 564.347 416.389 567.012C416.389 569.673 414.207 571.855 411.546 571.855Z" fill="white"/>
<path d="M411.546 587.454H330.138C327.474 587.454 325.295 585.275 325.295 582.611C325.295 579.946 327.474 577.767 330.138 577.767H411.546C414.207 577.767 416.389 579.946 416.389 582.611C416.389 585.275 414.207 587.454 411.546 587.454Z" fill="white"/>
<path d="M345.339 583.041C345.339 583.981 344.576 584.744 343.634 584.744C342.692 584.744 341.929 583.981 341.929 583.041C341.929 582.098 342.692 581.335 343.634 581.335C344.576 581.335 345.339 582.098 345.339 583.041Z" fill="#80B2FF"/>
<path d="M351.186 583.041C351.186 583.981 350.422 584.744 349.481 584.744C348.539 584.744 347.775 583.981 347.775 583.041C347.775 582.098 348.539 581.335 349.481 581.335C350.422 581.335 351.186 582.098 351.186 583.041Z" fill="#80B2FF"/>
<path d="M357.032 583.041C357.032 583.981 356.268 584.744 355.327 584.744C354.385 584.744 353.621 583.981 353.621 583.041C353.621 582.098 354.385 581.335 355.327 581.335C356.268 581.335 357.032 582.098 357.032 583.041Z" fill="#80B2FF"/>
<path d="M362.878 583.041C362.878 583.981 362.114 584.744 361.173 584.744C360.231 584.744 359.468 583.981 359.468 583.041C359.468 582.098 360.231 581.335 361.173 581.335C362.114 581.335 362.878 582.098 362.878 583.041Z" fill="#80B2FF"/>
<path d="M368.725 583.041C368.725 583.981 367.961 584.744 367.02 584.744C366.078 584.744 365.314 583.981 365.314 583.041C365.314 582.098 366.078 581.335 367.02 581.335C367.961 581.335 368.725 582.098 368.725 583.041Z" fill="#80B2FF"/>
<path d="M374.572 583.041C374.572 583.981 373.808 584.744 372.866 584.744C371.924 584.744 371.161 583.981 371.161 583.041C371.161 582.098 371.924 581.335 372.866 581.335C373.808 581.335 374.572 582.098 374.572 583.041Z" fill="#80B2FF"/>
<path d="M380.417 583.041C380.417 583.981 379.654 584.744 378.712 584.744C377.77 584.744 377.007 583.981 377.007 583.041C377.007 582.098 377.77 581.335 378.712 581.335C379.654 581.335 380.417 582.098 380.417 583.041Z" fill="#80B2FF"/>
<path d="M386.265 583.041C386.265 583.981 385.501 584.744 384.56 584.744C383.618 584.744 382.854 583.981 382.854 583.041C382.854 582.098 383.618 581.335 384.56 581.335C385.501 581.335 386.265 582.098 386.265 583.041Z" fill="#80B2FF"/>
<path d="M392.111 583.041C392.111 583.981 391.347 584.744 390.405 584.744C389.464 584.744 388.7 583.981 388.7 583.041C388.7 582.098 389.464 581.335 390.405 581.335C391.347 581.335 392.111 582.098 392.111 583.041Z" fill="#80B2FF"/>
<path d="M389.582 529.899C389.582 540.237 381.204 548.614 370.869 548.614C360.534 548.614 352.155 540.237 352.155 529.899C352.155 519.565 360.534 511.188 370.869 511.188C381.204 511.188 389.582 519.565 389.582 529.899Z" fill="white"/>
<path d="M370.896 529.149C372.723 529.149 374.41 528.257 375.487 526.899C376.283 525.914 376.752 524.65 376.752 523.243C376.752 520.011 374.128 517.34 370.896 517.34C367.617 517.34 364.993 520.011 364.993 523.243C364.993 524.65 365.461 525.914 366.258 526.899C367.336 528.257 369.022 529.149 370.896 529.149Z" fill="#005CEA"/>
<path d="M381.268 539.666C381.268 543.392 360.466 543.392 360.466 539.666L360.473 535.326C361.294 529.39 379.577 529.139 381.272 535.326L381.268 539.666Z" fill="#005CEA"/>
<path d="M332.594 583.447V584.439C332.594 584.619 332.441 584.744 332.263 584.744C332.085 584.744 331.958 584.619 331.958 584.439V583.447C331.779 583.346 331.652 583.166 331.652 582.937C331.652 582.608 331.932 582.327 332.263 582.327C332.594 582.327 332.874 582.608 332.874 582.937C332.874 583.166 332.746 583.346 332.594 583.447ZM331.043 581.457C331.043 580.798 331.45 580.199 332.27 580.199C333.089 580.199 333.509 580.761 333.509 581.457V581.716H331.043V581.457ZM334.175 581.716V581.457C334.175 580.407 333.321 579.552 332.27 579.552C331.218 579.552 330.364 580.407 330.364 581.457V581.716H330.074V585.153C330.074 585.745 334.477 585.745 334.477 585.153V581.716H334.175Z" fill="#5896FA"/>
<path d="M332.275 566.658C332.66 566.658 333.016 566.472 333.244 566.185C333.412 565.977 333.511 565.712 333.511 565.413C333.511 564.732 332.957 564.167 332.275 564.167C331.583 564.167 331.029 564.732 331.029 565.413C331.029 565.712 331.128 565.977 331.296 566.185C331.524 566.472 331.879 566.658 332.275 566.658Z" fill="#5896FA"/>
<path d="M334.463 568.88C334.463 569.664 330.051 569.664 330.051 568.88L330.075 567.964C330.248 566.71 334.106 566.658 334.464 567.964L334.463 568.88Z" fill="#5896FA"/>
<path d="M360.79 568.431H342.95C342.168 568.431 341.528 567.793 341.528 567.012C341.528 566.227 342.168 565.59 342.95 565.59H360.79C361.571 565.59 362.211 566.227 362.211 567.012C362.211 567.793 361.571 568.431 360.79 568.431Z" fill="#80B2FF"/>
<path d="M384.319 568.431H366.479C365.697 568.431 365.058 567.793 365.058 567.012C365.058 566.227 365.697 565.59 366.479 565.59H384.319C385.1 565.59 385.74 566.227 385.74 567.012C385.74 567.793 385.1 568.431 384.319 568.431Z" fill="#80B2FF"/>
<path d="M376.809 602.568H360.642C358.35 602.568 356.492 600.709 356.492 598.42C356.492 596.128 358.35 594.269 360.642 594.269H376.809C379.101 594.269 380.959 596.128 380.959 598.42C380.959 600.709 379.101 602.568 376.809 602.568Z" fill="#1251B3"/>
<path d="M165.21 433.621C165.211 433.487 165.211 433.429 165.211 433.417C165.211 433.441 165.21 433.621 165.21 433.621Z" fill="#D9FFFF"/>
<path d="M165.21 433.621C165.211 433.487 165.211 433.429 165.211 433.417C165.211 433.441 165.21 433.621 165.21 433.621Z" fill="#D9FFFF"/>
<path d="M244.786 433.978C244.786 433.978 244.787 433.795 244.787 433.771C244.787 433.786 244.787 433.844 244.786 433.978Z" fill="#D9FFFF"/>
<path d="M244.786 433.978C244.786 433.978 244.787 433.795 244.787 433.771C244.787 433.786 244.787 433.844 244.786 433.978Z" fill="#D9FFFF"/>
<path d="M205.161 412.123C195.888 422.057 181.091 430.197 165.256 433.664C165.252 434.723 165.226 440.583 165.105 467.587C164.944 503.613 199.229 521.216 204.551 523.917C209.709 521.543 244.426 503.967 244.587 467.944C244.708 440.937 244.734 435.077 244.739 434.021C228.936 430.41 214.345 422.139 205.161 412.123Z" fill="white"/>
<path d="M205.066 418.633C195.985 426.965 183.405 433.511 169.571 437.079L169.434 467.602C169.372 481.568 174.92 494.203 185.926 505.157C193.157 512.353 200.76 516.819 204.618 518.824C204.784 518.741 204.966 518.644 205.145 518.552V418.703C205.119 418.681 205.092 418.657 205.066 418.633Z" fill="#296ACC"/>
<path d="M205.145 418.703V518.552C209.156 516.464 216.448 512.152 223.431 505.325C234.534 494.469 240.195 481.885 240.257 467.919L240.394 437.396C226.632 433.716 214.144 427.08 205.145 418.703Z" fill="#2E77E6"/>
<path d="M206.771 475.257V481.959C206.771 482.85 206.045 483.592 205.152 483.592C204.245 483.592 203.518 482.85 203.518 481.959V475.241C202.141 474.619 201.173 473.227 201.173 471.625C201.173 469.43 202.958 467.66 205.152 467.66C207.345 467.66 209.116 469.43 209.116 471.625C209.116 473.242 208.162 474.634 206.771 475.257ZM189.07 462.698V486.344C189.07 488.978 221.219 488.978 221.219 486.344V462.698H189.07Z" fill="white"/>
<path d="M218.405 461.013H215.151V459.42C215.151 453.905 210.662 449.415 205.146 449.415C199.629 449.415 195.141 453.905 195.141 459.42V461.013H191.887V459.42C191.887 452.11 197.835 446.162 205.146 446.162C212.457 446.162 218.405 452.11 218.405 459.42V461.013Z" fill="white"/>
<path d="M443.116 289.988H385.044V217.5H443.116V289.988Z" fill="#296ACC"/>
<path d="M450.648 297.474H392.574V224.986H450.648V297.474Z" fill="white"/>
<path d="M450.648 297.474H392.574V224.986H450.648V297.474Z" stroke="#5896FA" stroke-width="8.45409" stroke-miterlimit="10"/>
<path d="M460.21 304.823H402.14V232.335H460.21V304.823Z" fill="white"/>
<path d="M460.21 304.823H402.14V232.335H460.21V304.823Z" stroke="#5896FA" stroke-width="8.45409" stroke-miterlimit="10"/>
<path d="M467.169 312.307H409.099V239.822H467.169V312.307Z" fill="#5896FA"/>
<path d="M458.134 256.437H428.097V251.722H458.134V256.437Z" fill="#005CEA"/>
<path d="M458.135 267.513H419.213V262.798H458.135V267.513Z" fill="#005CEA"/>
<path d="M458.135 278.589H419.213V273.873H458.135V278.589Z" fill="#005CEA"/>
<path d="M458.135 289.664H419.213V284.949H458.135V289.664Z" fill="#005CEA"/>
<path d="M458.135 300.74H419.213V296.028H458.135V300.74Z" fill="#005CEA"/>
<path d="M278.154 296.4C278.154 307.729 268.971 316.913 257.643 316.913C246.315 316.913 237.132 307.729 237.132 296.4C237.132 285.074 246.315 275.891 257.643 275.891C268.971 275.891 278.154 285.074 278.154 296.4Z" fill="white"/>
<path d="M247.059 313.964C237.35 308.111 234.23 295.512 240.085 285.804C245.931 276.107 258.528 272.988 268.238 278.845C277.932 284.69 281.052 297.288 275.206 306.981C269.35 316.69 256.754 319.812 247.059 313.964ZM290.004 315.905C292.663 311.495 294.326 306.728 295.03 301.918L296.558 302.144L299.575 302.587L299.614 302.59C300.428 297.087 300.151 291.52 298.821 286.203L294.333 287.314C293.129 282.501 291.007 277.917 287.984 273.876L291.704 271.111C288.521 266.79 284.435 263.014 279.558 260.072L277.161 264.046C272.735 261.378 267.985 259.724 263.175 259.019L263.846 254.435C258.342 253.62 252.767 253.913 247.458 255.229L248.57 259.718C243.759 260.921 239.174 263.042 235.134 266.066L232.368 262.346C228.047 265.529 224.27 269.616 221.328 274.493L225.303 276.889C222.634 281.314 220.98 286.066 220.276 290.876L217.033 290.397L215.707 290.214L215.692 290.205C214.878 295.707 215.17 301.283 216.484 306.591L220.973 305.48C222.177 310.293 224.313 314.886 227.337 318.924L223.617 321.692C226.8 326.011 230.871 329.78 235.748 332.722L238.145 328.748C242.57 331.416 247.336 333.079 252.146 333.784L251.62 337.346L251.476 338.368C256.979 339.18 262.539 338.881 267.847 337.566L266.736 333.076C271.548 331.874 276.141 329.737 280.196 326.722L282.961 330.442C287.268 327.25 291.036 323.178 293.978 318.301L290.004 315.905Z" fill="#005CEA"/>
<path d="M202.614 333.168C197.636 336.464 190.94 335.1 187.646 330.122C184.357 325.15 185.72 318.454 190.698 315.161C195.669 311.871 202.364 313.235 205.653 318.204C208.948 323.184 207.585 329.877 202.614 333.168ZM213.241 313.183C211.745 310.922 209.854 309.057 207.725 307.635L208.177 306.957L209.07 305.623L209.08 305.605C206.647 303.975 203.937 302.849 201.108 302.278L200.623 304.665C198.062 304.149 195.403 304.122 192.798 304.647L192.324 302.254C189.55 302.791 186.83 303.881 184.329 305.535L185.678 307.573C183.408 309.075 181.548 310.961 180.127 313.088L178.098 311.733C176.467 314.166 175.346 316.885 174.772 319.705L177.158 320.19C176.643 322.751 176.616 325.412 177.141 328.016L174.747 328.489C175.285 331.263 176.374 333.986 178.029 336.485L180.066 335.136C181.568 337.407 183.453 339.265 185.582 340.688L184.622 342.122L184.235 342.711L184.227 342.717C186.66 344.347 189.377 345.467 192.199 346.041L192.685 343.657C195.245 344.17 197.912 344.191 200.517 343.666L200.991 346.062C203.765 345.525 206.477 344.442 208.978 342.784L207.63 340.749C209.899 339.247 211.767 337.355 213.189 335.228L214.763 336.284L215.217 336.583C216.848 334.147 217.961 331.437 218.535 328.614L216.149 328.129C216.664 325.568 216.686 322.901 216.169 320.291L218.563 319.818C218.018 317.05 216.933 314.337 215.279 311.837L213.241 313.183Z" fill="#1251B3"/>
<path d="M548.694 354.864H498.83C497.78 354.864 496.929 354.013 496.929 352.963V324.671C496.929 323.621 497.78 322.772 498.83 322.772H548.694C549.744 322.772 550.595 323.621 550.595 324.671V352.963C550.595 354.013 549.744 354.864 548.694 354.864Z" fill="#005CEA"/>
<path d="M550.595 334.37H496.929V328.834H550.595V334.37Z" fill="#5896FA"/>
<path d="M509.222 348.708H501.332C500.829 348.708 500.423 349.114 500.423 349.615C500.423 350.118 500.829 350.524 501.332 350.524H509.222C509.722 350.524 510.131 350.118 510.131 349.615C510.131 349.114 509.722 348.708 509.222 348.708Z" fill="#D1F5FF"/>
<path d="M521.357 348.708H513.464C512.964 348.708 512.558 349.114 512.558 349.615C512.558 350.118 512.964 350.524 513.464 350.524H521.357C521.857 350.524 522.263 350.118 522.263 349.615C522.263 349.114 521.857 348.708 521.357 348.708Z" fill="#D1F5FF"/>
<path d="M533.491 348.708H525.599C525.098 348.708 524.692 349.114 524.692 349.615C524.692 350.118 525.098 350.524 525.599 350.524H533.491C533.992 350.524 534.398 350.118 534.398 349.615C534.398 349.114 533.992 348.708 533.491 348.708Z" fill="#D1F5FF"/>
<path d="M545.623 348.708H537.734C537.233 348.708 536.824 349.114 536.824 349.615C536.824 350.118 537.233 350.524 537.734 350.524H545.623C546.127 350.524 546.533 350.118 546.533 349.615C546.533 349.114 546.127 348.708 545.623 348.708Z" fill="#D1F5FF"/>
<path d="M500.97 324.399C500.414 324.399 499.966 324.848 499.966 325.403V325.754C499.966 326.307 500.414 326.758 500.97 326.758C501.522 326.758 501.971 326.307 501.971 325.754V325.403C501.971 324.848 501.522 324.399 500.97 324.399Z" fill="#D1F5FF"/>
<path d="M503.127 325.577C503.127 326.23 503.655 326.758 504.305 326.758H508.483C509.133 326.758 509.661 326.23 509.661 325.577C509.661 324.927 509.133 324.399 508.483 324.399H504.305C503.655 324.399 503.127 324.927 503.127 325.577Z" fill="#D1F5FF"/>
<path d="M502.581 337.349H507.974C508.838 337.349 509.54 338.051 509.54 338.914V343.566C509.54 344.429 508.838 345.131 507.974 345.131H502.581C501.715 345.131 501.016 344.429 501.016 343.566V338.914C501.016 338.051 501.715 337.349 502.581 337.349Z" fill="#5896FA"/>
<path d="M528.945 436.615V432.95C528.945 431.283 527.596 429.934 525.932 429.934H493.843C492.18 429.934 490.828 431.283 490.828 432.95V497.753H573.83V436.615H528.945Z" fill="#1251B3"/>
<path d="M577.282 438.843H495.891L490.831 497.753H573.424L577.282 438.843Z" fill="white"/>
<path d="M573.83 497.753H490.831L499.636 439.575C499.895 437.872 501.357 436.615 503.079 436.615H579.037C581.167 436.615 582.797 438.51 582.48 440.616L573.83 497.753Z" fill="#3383FF"/>
<path d="M601.536 438.843C601.536 449.345 593.024 457.86 582.519 457.86C572.017 457.86 563.502 449.345 563.502 438.843C563.502 428.338 572.017 419.823 582.519 419.823C593.024 419.823 601.536 428.338 601.536 438.843Z" fill="#005CEA"/>
<path d="M582.519 420.519C572.413 420.519 564.198 428.738 564.198 438.84C564.198 448.945 572.413 457.164 582.519 457.164C592.624 457.164 600.84 448.945 600.84 438.84C600.84 428.738 592.624 420.519 582.519 420.519ZM582.519 458.556C571.647 458.556 562.803 449.711 562.803 438.84C562.803 427.972 571.647 419.13 582.519 419.13C593.39 419.13 602.235 427.972 602.235 438.84C602.235 449.711 593.39 458.556 582.519 458.556Z" fill="white"/>
<path d="M583.447 442.551V446.369C583.447 446.876 583.032 447.3 582.525 447.3C582.006 447.3 581.594 446.876 581.594 446.369V442.542C580.81 442.191 580.258 441.398 580.258 440.485C580.258 439.234 581.274 438.227 582.525 438.227C583.774 438.227 584.781 439.234 584.781 440.485C584.781 441.407 584.237 442.2 583.447 442.551ZM573.366 435.4V448.866C573.366 450.364 591.672 450.364 591.672 448.866V435.4H573.366Z" fill="white"/>
<path d="M590.07 434.442H588.217V433.535C588.217 430.392 585.663 427.837 582.519 427.837C579.379 427.837 576.821 430.392 576.821 433.535V434.442H574.969V433.535C574.969 429.369 578.356 425.982 582.519 425.982C586.685 425.982 590.07 429.369 590.07 433.535V434.442Z" fill="white"/>
<path d="M523.762 279.684C523.762 283.707 520.503 286.966 516.483 286.966C512.461 286.966 509.201 283.707 509.201 279.684C509.201 275.665 512.461 272.405 516.483 272.405C520.503 272.405 523.762 275.665 523.762 279.684Z" fill="#AAE0FF"/>
<path d="M332.575 306.853C332.575 310.876 329.316 314.135 325.295 314.135C321.274 314.135 318.014 310.876 318.014 306.853C318.014 302.834 321.274 299.574 325.295 299.574C329.316 299.574 332.575 302.834 332.575 306.853Z" fill="#AAE0FF"/>
<path d="M571.345 403.794C571.345 405.897 569.639 407.6 567.536 407.6C565.434 407.6 563.728 405.897 563.728 403.794C563.728 401.688 565.434 399.985 567.536 399.985C569.639 399.985 571.345 401.688 571.345 403.794Z" fill="white"/>
<path d="M172.722 410.935C172.722 413.038 171.017 414.744 168.913 414.744C166.81 414.744 165.104 413.038 165.104 410.935C165.104 408.833 166.81 407.127 168.913 407.127C171.017 407.127 172.722 408.833 172.722 410.935Z" fill="#AAE0FF"/>
<path d="M235.78 549.741C235.78 553.76 232.52 557.02 228.499 557.02C224.478 557.02 221.219 553.76 221.219 549.741C221.219 545.718 224.478 542.458 228.499 542.458C232.52 542.458 235.78 545.718 235.78 549.741Z" fill="#AAE0FF"/>
<path d="M345.335 234.576C344.638 234.576 344.073 234.011 344.073 233.315V219.81C344.073 219.111 344.638 218.547 345.335 218.547C346.032 218.547 346.596 219.111 346.596 219.81V233.315C346.596 234.011 346.032 234.576 345.335 234.576Z" fill="#AAE0FF"/>
<path d="M337.32 226.561C337.32 225.865 337.885 225.301 338.582 225.301H352.088C352.784 225.301 353.349 225.865 353.349 226.561C353.349 227.257 352.784 227.822 352.088 227.822H338.582C337.885 227.822 337.32 227.257 337.32 226.561Z" fill="#AAE0FF"/>
<path d="M488.917 408C488.218 408 487.653 407.432 487.653 406.736V393.231C487.653 392.535 488.218 391.97 488.917 391.97C489.613 391.97 490.177 392.535 490.177 393.231V406.736C490.177 407.432 489.613 408 488.917 408Z" fill="white"/>
<path d="M480.902 399.985C480.902 399.286 481.467 398.721 482.163 398.721H495.668C496.364 398.721 496.928 399.286 496.928 399.985C496.928 400.681 496.364 401.245 495.668 401.245H482.163C481.467 401.245 480.902 400.681 480.902 399.985Z" fill="white"/>
<path d="M475.183 585.885C474.487 585.885 473.923 585.321 473.923 584.625V571.12C473.923 570.424 474.487 569.856 475.183 569.856C475.882 569.856 476.447 570.424 476.447 571.12V584.625C476.447 585.321 475.882 585.885 475.183 585.885Z" fill="white"/>
<path d="M467.169 577.871C467.169 577.175 467.734 576.61 468.432 576.61H481.938C482.633 576.61 483.198 577.175 483.198 577.871C483.198 578.57 482.633 579.134 481.938 579.134H468.432C467.734 579.134 467.169 578.57 467.169 577.871Z" fill="white"/>
<path d="M366.812 485.075C366.812 487.306 365.004 489.113 362.774 489.113C360.543 489.113 358.735 487.306 358.735 485.075C358.735 482.847 360.543 481.037 362.774 481.037C365.004 481.037 366.812 482.847 366.812 485.075Z" stroke="white" stroke-width="5.63423" stroke-miterlimit="10"/>
<path d="M462.023 854.986H446.22L444.584 820.627H463.656L462.023 854.986Z" fill="#0E0E0E"/>
<path d="M736.664 854.986H720.86L719.225 820.627H738.297L736.664 854.986Z" fill="#0E0E0E"/>
<path d="M722.886 760.994C721.144 766.396 719.245 771.941 717.167 777.63H454.832C454.832 777.63 420.976 639.829 454.832 614.629C455.699 613.985 456.737 613.35 457.948 612.728C503.545 589.3 686.36 583.798 723.475 613.939C723.759 614.165 724.022 614.397 724.275 614.629C737.951 627.182 749.842 677.296 722.886 760.994Z" fill="#EA7B00"/>
<path d="M553.739 777.63H454.891L464.532 681.05C481.767 688.527 527.656 728.017 553.739 777.63Z" fill="#982C20"/>
<path d="M722.887 760.994C721.144 766.396 719.246 771.941 717.167 777.63H621.887C638.273 747.241 678.004 701.208 716.587 680.021L722.887 760.994Z" fill="#982C20"/>
<path d="M755.756 679.698H719.386C713.273 679.698 708.105 684.227 707.303 690.288L695.705 777.996H483.14L471.542 690.288C470.739 684.227 465.572 679.698 459.459 679.698H423.088C415.498 679.698 409.757 686.555 411.088 694.027L431.28 840.089H451.255H746.921H747.562L767.757 694.027C769.087 686.555 763.347 679.698 755.756 679.698Z" fill="#EA7B00"/>
<path d="M693.584 730.089C710.7 735.818 707.364 772.057 693.584 777.627H485.95C470.443 773.626 469.134 725.691 491.496 729.296C628.363 755.03 634.992 713.978 693.584 730.089Z" fill="#F2B066"/>
<path d="M535.329 693.355C535.265 702.713 535.768 711.521 536.775 719.236H634.134L639.899 624.17C634.116 589.447 618.285 581.033 593.225 581.033C570.799 581.033 555.863 599.326 546.786 623.816C538.939 644.975 535.469 670.752 535.329 693.355Z" fill="#007880"/>
<path d="M535.329 695.193L570.561 693.071C551.001 686.668 549.445 656.646 569.328 637.968L546.786 623.815C538.94 644.975 535.469 672.586 535.329 695.193Z" fill="#005459"/>
<path d="M528.624 738.879H662.387V693.358H541.894L528.624 738.879Z" fill="#0E0E0E"/>
<path d="M679.475 724.434L643.547 854.986H615.529C624.398 799.431 622.415 763.316 630.756 717.185C638.074 679.319 688.185 689.342 679.475 724.434Z" fill="#0E0E0E"/>
<path d="M633.485 854.986C633.485 854.901 633.479 854.815 633.479 854.727C633.479 845.049 641.325 837.205 651.003 837.205C660.681 837.205 668.525 845.049 668.525 854.727C668.525 854.815 668.522 854.901 668.519 854.986H633.485Z" fill="#B15626"/>
<path d="M654.378 837.532L648.009 835.585C643.806 827.314 625.872 828.336 628.372 838.405C621.334 839.452 617.635 835.948 617.635 835.948L615.529 854.986H653.521L654.378 837.532Z" fill="#B15626"/>
<path d="M521.71 724.434L557.642 854.986H585.656C576.787 799.431 578.774 763.316 570.433 717.185C563.114 679.319 513 689.342 521.71 724.434Z" fill="#0E0E0E"/>
<path d="M567.704 854.986C567.704 854.901 567.71 854.815 567.71 854.727C567.71 845.049 559.864 837.205 550.186 837.205C540.508 837.205 532.661 845.049 532.661 854.727C532.661 854.815 532.667 854.901 532.67 854.986H567.704Z" fill="#B15626"/>
<path d="M546.808 837.532L553.177 835.585C557.383 827.314 575.313 828.336 572.817 838.405C579.852 839.452 583.554 835.948 583.554 835.948L585.657 854.986H547.665L546.808 837.532Z" fill="#B15626"/>
<path d="M578.221 584.088C591.363 592.063 593.234 615.743 586.498 625.177L549.004 653.109L587.179 672.767L580.977 693.072C580.977 693.072 541.13 689.827 521.628 669.821C502.901 650.612 548.556 594.187 578.221 584.088Z" fill="#007880"/>
<path d="M604.878 620.01C593.641 605.894 601.402 584.088 615.728 584.729C662.387 601.155 676.789 646.761 662.009 667.233C649.343 684.773 593.641 691.527 593.641 691.527V672.324L632.343 663.962C632.343 663.962 612.386 633.042 604.878 620.01Z" fill="#007880"/>
<path d="M563.993 686.656C563.27 680.226 567.033 672.184 576.711 670.429C593.616 667.358 599.735 676.633 601.334 683.262C601.749 684.99 600.178 686.818 598.728 686.656C597.275 686.498 596.256 685.677 596.005 684.361C595.706 682.777 594.867 680.818 593.054 679.795C594.803 683.22 594.074 686.656 589.312 686.656H563.993Z" fill="#F7A594"/>
<path d="M602.161 686.641L615.465 619.936H618.285C617.384 624.53 604.297 691.274 603.889 693.358C600.4 693.358 568.372 693.358 564.02 693.358L559.665 686.641H602.161Z" fill="#99C1FF"/>
<path d="M618.285 619.936H717.277L702.633 693.358H603.889L618.285 619.936Z" fill="white"/>
<path d="M589.423 588.867C589.423 596.457 612.175 601.493 619.613 593.515C620.739 592.316 621.512 590.833 621.811 589.014L626.096 569.789L598.921 559.543L598.112 562.055L589.423 588.867Z" fill="#F7A594"/>
<path d="M621.81 589.013L626.095 569.789L600.385 562.867C593.732 582.671 617.479 598.496 621.81 589.013Z" fill="#F4856D"/>
<path d="M596.912 552.158C595.481 571.052 610.414 587.692 622.942 588.537C635.471 589.38 652.721 575.386 654.152 556.491C655.584 537.596 643.928 521.308 628.122 520.112C612.315 518.915 598.343 533.263 596.912 552.158Z" fill="#F7A594"/>
<path d="M617.861 521.543C635.185 510.571 644.722 520.89 653.35 531.834C659.402 539.513 663.69 545.031 671.226 546.185C656.732 564.466 627.747 552.408 618.615 534.09C617.715 544.515 605.425 553.153 596.913 552.158C594.157 540.554 602.193 517.096 617.861 521.543Z" fill="#0E0E0E"/>
<path d="M592.676 552.408C592.676 556.574 596.054 559.949 600.217 559.949C604.383 559.949 607.759 556.574 607.759 552.408C607.759 548.242 604.383 544.866 600.217 544.866C596.054 544.866 592.676 548.242 592.676 552.408Z" fill="#F7A594"/>
</svg>
